[{
    "id": "1",
    "name": "client 1"
  },
  {
    "id": "2",
    "name": "client 2"
  },
  {
    "id": "3",
    "name": "client 3"
  },
  {
    "id": "4",
    "name": "client 4"
  },
  {
    "id": "5",
    "name": "client 5"
  }
]
